…
``` r
# Packages
library(tidyverse)  # For wrangling data
library(lubridate)  # Dates and times
library(purrr)      # Mapping functions to each element of a vector

# Read Nebraska crime data and glimpse -----------------------------------------
badcorn_wide = read_csv(file = "./dat/BadCornHusker.csv")

# Glimpse data
badcorn_wide  
```

    ## # A tibble: 31 × 18
    ##                Offense Violent `2000` `2001` `2002` `2003` `2004` `2005`
    ##                  <chr>   <lgl>  <int>  <int>  <int>  <int>  <int>  <int>
    ## 1              Unknown      NA      4      4      5      3      9      6
    ## 2    Criminal_Homicide    TRUE     49     51     42     56     35     41
    ## 3  Death_by_Negligence      NA     16     22     24     20     15     21
    ## 4        Forcible_Rape    TRUE    158    156    155    157    200    169
    ## 5              Robbery    TRUE    316    282    331    282    317    324
    ## 6   Aggravated_Assault    TRUE    959    895    849    876   1044   1274
    ## 7             Burglary   FALSE   1196   1033   1015   1031   1012    965
    ## 8              Larceny   FALSE   9904   9797   9315   8256   8795   8468
    ## 9  Motor_Vehicle_Theft   FALSE    471    558    530    457    399    370
    ## 10      Simple_Assault    TRUE  10229   9809   9838   9589   9607   9975
    ## # ... with 21 more rows, and 10 more variables: `2006` <int>,
    ## #   `2007` <int>, `2008` <int>, `2009` <int>, `2010` <int>, `2011` <int>,
    ## #   `2012` <int>, `2013` <int>, `2014` <int>, `2015` <int>
…
# Glimpse data
badcorn_long
```

    ## # A tibble: 496 × 7
    ##                Offense Violent    yr Count       Year  Status Legal
    ##                 <fctr>   <lgl> <chr> <int>     <date>   <chr> <lgl>
    ## 1              Unknown      NA  2000     4 2000-12-31 Illegal FALSE
    ## 2    Criminal_Homicide    TRUE  2000    49 2000-12-31 Illegal FALSE
    ## 3  Death_by_Negligence      NA  2000    16 2000-12-31 Illegal FALSE
    ## 4        Forcible_Rape    TRUE  2000   158 2000-12-31 Illegal FALSE
    ## 5              Robbery    TRUE  2000   316 2000-12-31 Illegal FALSE
    ## 6   Aggravated_Assault    TRUE  2000   959 2000-12-31 Illegal FALSE
    ## 7             Burglary   FALSE  2000  1196 2000-12-31 Illegal FALSE
    ## 8              Larceny   FALSE  2000  9904 2000-12-31 Illegal FALSE
    ## 9  Motor_Vehicle_Theft   FALSE  2000   471 2000-12-31 Illegal FALSE
    ## 10      Simple_Assault    TRUE  2000 10229 2000-12-31 Illegal FALSE
    ## # ... with 486 more rows
…
